{
  "id": "token-action-hud-od6s",
  "title": "Token Action HUD OpenD6 Space",
  "description": "Token Action HUD is a repositionable HUD of actions for a selected token",
  "authors": [
    {
      "name": "seumas",
      "flags": {}
    }
  ],
  "url": "https://gitlab.com/vtt2/tokena-action-hud-opend6-space",
  "version": "1.0.4",
  "compatibility": {
    "minimum": "11",
    "verified": "12.328",
    "maximum": "12"
  },
  "esmodules": [
    "scripts/init.js"
  ],
  "languages": [
    {
      "lang": "en",
      "name": "English",
      "path": "languages/en.json",
      "flags": {}
    }
  ],
  "relationships": {
    "systems": [
      {
        "id": "od6s",
        "type": "system",
        "compatibility": [
          null
        ]
      }
    ],
    "requires": [
      {
        "id": "token-action-hud-core",
        "type": "module",
        "compatibility": [
          {
            "minimum": "1.5",
            "maximum": "1.5",
            "verified": "1.5.4"
          }
        ]
      }
    ],
    "flags": {
      "optional": []
    }
  },
  "manifest": "https://gitlab.com/api/v4/projects/44421965/packages/generic/token-action-hud-od6s/0.0.0/module.json",
  "download": "https://gitlab.com/api/v4/projects/44421965/packages/generic/token-action-hud-od6s/0.0.0/token-action-hud-od6s.zip",
  "readme": "https://gitlab.com/vtt2/token-action-hud-opend6-space"
}
